
ASCII:     formato del fichero elf64-x86-64

Contenido de la sección .interp:
 0238 2f6c6962 36342f6c 642d6c69 6e75782d  /lib64/ld-linux-
 0248 7838362d 36342e73 6f2e3200           x86-64.so.2.    
Contenido de la sección .note.ABI-tag:
 0254 04000000 10000000 01000000 474e5500  ............GNU.
 0264 00000000 03000000 02000000 00000000  ................
Contenido de la sección .note.gnu.build-id:
 0274 04000000 14000000 03000000 474e5500  ............GNU.
 0284 6223b15d 85bdbe72 e376506d e472d6ee  b#.]...r.vPm.r..
 0294 16e889f7                             ....            
Contenido de la sección .gnu.hash:
 0298 01000000 01000000 01000000 00000000  ................
 02a8 00000000 00000000 00000000           ............    
Contenido de la sección .dynsym:
 02b8 00000000 00000000 00000000 00000000  ................
 02c8 00000000 00000000 3f000000 20000000  ........?... ...
 02d8 00000000 00000000 00000000 00000000  ................
 02e8 0b000000 12000000 00000000 00000000  ................
 02f8 00000000 00000000 21000000 12000000  ........!.......
 0308 00000000 00000000 00000000 00000000  ................
 0318 5b000000 20000000 00000000 00000000  [... ...........
 0328 00000000 00000000 6a000000 20000000  ........j... ...
 0338 00000000 00000000 00000000 00000000  ................
 0348 12000000 22000000 00000000 00000000  ...."...........
 0358 00000000 00000000                    ........        
Contenido de la sección .dynstr:
 0360 006c6962 632e736f 2e360070 72696e74  .libc.so.6.print
 0370 66005f5f 6378615f 66696e61 6c697a65  f.__cxa_finalize
 0380 005f5f6c 6962635f 73746172 745f6d61  .__libc_start_ma
 0390 696e0047 4c494243 5f322e32 2e35005f  in.GLIBC_2.2.5._
 03a0 49544d5f 64657265 67697374 6572544d  ITM_deregisterTM
 03b0 436c6f6e 65546162 6c65005f 5f676d6f  CloneTable.__gmo
 03c0 6e5f7374 6172745f 5f005f49 544d5f72  n_start__._ITM_r
 03d0 65676973 74657254 4d436c6f 6e655461  egisterTMCloneTa
 03e0 626c6500                             ble.            
Contenido de la sección .gnu.version:
 03e4 00000000 02000200 00000000 0200      ..............  
Contenido de la sección .gnu.version_r:
 03f8 01000100 01000000 10000000 00000000  ................
 0408 751a6909 00000200 33000000 00000000  u.i.....3.......
Contenido de la sección .rela.dyn:
 0418 b80d2000 00000000 08000000 00000000  .. .............
 0428 40060000 00000000 c00d2000 00000000  @......... .....
 0438 08000000 00000000 00060000 00000000  ................
 0448 08102000 00000000 08000000 00000000  .. .............
 0458 08102000 00000000 d80f2000 00000000  .. ....... .....
 0468 06000000 01000000 00000000 00000000  ................
 0478 e00f2000 00000000 06000000 03000000  .. .............
 0488 00000000 00000000 e80f2000 00000000  .......... .....
 0498 06000000 04000000 00000000 00000000  ................
 04a8 f00f2000 00000000 06000000 05000000  .. .............
 04b8 00000000 00000000 f80f2000 00000000  .......... .....
 04c8 06000000 06000000 00000000 00000000  ................
Contenido de la sección .rela.plt:
 04d8 d00f2000 00000000 07000000 02000000  .. .............
 04e8 00000000 00000000                    ........        
Contenido de la sección .init:
 04f0 4883ec08 488b05ed 0a200048 85c07402  H...H.... .H..t.
 0500 ffd04883 c408c3                      ..H....         
Contenido de la sección .plt:
 0510 ff35aa0a 2000ff25 ac0a2000 0f1f4000  .5.. ..%.. ...@.
 0520 ff25aa0a 20006800 000000e9 e0ffffff  .%.. .h.........
Contenido de la sección .plt.got:
 0530 ff25c20a 20006690                    .%.. .f.        
Contenido de la sección .text:
 0540 31ed4989 d15e4889 e24883e4 f050544c  1.I..^H..H...PTL
 0550 8d05da01 0000488d 0d630100 00488d3d  ......H..c...H.=
 0560 e6000000 ff15760a 2000f40f 1f440000  ......v. ....D..
 0570 488d3d99 0a200055 488d0591 0a200048  H.=.. .UH.... .H
 0580 39f84889 e5741948 8b054a0a 20004885  9.H..t.H..J. .H.
 0590 c0740d5d ffe0662e 0f1f8400 00000000  .t.]..f.........
 05a0 5dc30f1f 4000662e 0f1f8400 00000000  ]...@.f.........
 05b0 488d3d59 0a200048 8d35520a 20005548  H.=Y. .H.5R. .UH
 05c0 29fe4889 e548c1fe 034889f0 48c1e83f  ).H..H...H..H..?
 05d0 4801c648 d1fe7418 488b0511 0a200048  H..H..t.H.... .H
 05e0 85c0740c 5dffe066 0f1f8400 00000000  ..t.]..f........
 05f0 5dc30f1f 4000662e 0f1f8400 00000000  ]...@.f.........
 0600 803d090a 20000075 2f48833d e7092000  .=.. ..u/H.=.. .
 0610 00554889 e5740c48 8b3dea09 2000e80d  .UH..t.H.=.. ...
 0620 ffffffe8 48ffffff c605e109 2000015d  ....H....... ..]
 0630 c30f1f80 00000000 f3c3660f 1f440000  ..........f..D..
 0640 554889e5 5de966ff ffff5548 89e54883  UH..].f...UH..H.
 0650 ec10c745 fc000000 00c645fb 200fb645  ...E......E. ..E
 0660 fb84c078 458345fc 010fb645 fb89c648  ...xE.E....E...H
 0670 8d3dce00 0000b800 000000e8 a0feffff  .=..............
 0680 837dfc10 7518488d 3dbb0000 00b80000  .}..u.H.=.......
 0690 0000e889 feffffc7 45fc0000 00000fb6  ........E.......
 06a0 45fb83c0 018845fb ebb3b800 000000c9  E.....E.........
 06b0 c3662e0f 1f840000 0000000f 1f440000  .f...........D..
 06c0 41574156 4989d741 5541544c 8d25e606  AWAVI..AUATL.%..
 06d0 20005548 8d2de606 20005341 89fd4989   .UH.-.. .SA..I.
 06e0 f64c29e5 4883ec08 48c1fd03 e8fffdff  .L).H...H.......
 06f0 ff4885ed 742031db 0f1f8400 00000000  .H..t 1.........
 0700 4c89fa4c 89f64489 ef41ff14 dc4883c3  L..L..D..A...H..
 0710 014839dd 75ea4883 c4085b5d 415c415d  .H9.u.H...[]A\A]
 0720 415e415f c390662e 0f1f8400 00000000  A^A_..f.........
 0730 f3c3                                 ..              
Contenido de la sección .fini:
 0734 4883ec08 4883c408 c3                 H...H....       
Contenido de la sección .rodata:
 0740 01000200 25632000 0a2000             ....%c .. .     
Contenido de la sección .eh_frame_hdr:
 074c 011b033b 38000000 06000000 c4fdffff  ...;8...........
 075c 84000000 e4fdffff ac000000 f4fdffff  ................
 076c 54000000 fefeffff c4000000 74ffffff  T...........t...
 077c e4000000 e4ffffff 2c010000           ........,...    
Contenido de la sección .eh_frame:
 0788 14000000 00000000 017a5200 01781001  .........zR..x..
 0798 1b0c0708 90010710 14000000 1c000000  ................
 07a8 98fdffff 2b000000 00000000 00000000  ....+...........
 07b8 14000000 00000000 017a5200 01781001  .........zR..x..
 07c8 1b0c0708 90010000 24000000 1c000000  ........$.......
 07d8 38fdffff 20000000 000e1046 0e184a0f  8... ......F..J.
 07e8 0b770880 003f1a3b 2a332422 00000000  .w...?.;*3$"....
 07f8 14000000 44000000 30fdffff 08000000  ....D...0.......
 0808 00000000 00000000 1c000000 5c000000  ............\...
 0818 32feffff 67000000 00410e10 8602430d  2...g....A....C.
 0828 0602620c 07080000 44000000 7c000000  ..b.....D...|...
 0838 88feffff 65000000 00420e10 8f02420e  ....e....B....B.
 0848 188e0345 0e208d04 420e288c 05480e30  ...E. ..B.(..H.0
 0858 8606480e 3883074d 0e40720e 38410e30  ..H.8..M.@r.8A.0
 0868 410e2842 0e20420e 18420e10 420e0800  A.(B. B..B..B...
 0878 10000000 c4000000 b0feffff 02000000  ................
 0888 00000000 00000000                    ........        
Contenido de la sección .init_array:
 200db8 40060000 00000000                    @.......        
Contenido de la sección .fini_array:
 200dc0 00060000 00000000                    ........        
Contenido de la sección .dynamic:
 200dc8 01000000 00000000 01000000 00000000  ................
 200dd8 0c000000 00000000 f0040000 00000000  ................
 200de8 0d000000 00000000 34070000 00000000  ........4.......
 200df8 19000000 00000000 b80d2000 00000000  .......... .....
 200e08 1b000000 00000000 08000000 00000000  ................
 200e18 1a000000 00000000 c00d2000 00000000  .......... .....
 200e28 1c000000 00000000 08000000 00000000  ................
 200e38 f5feff6f 00000000 98020000 00000000  ...o............
 200e48 05000000 00000000 60030000 00000000  ........`.......
 200e58 06000000 00000000 b8020000 00000000  ................
 200e68 0a000000 00000000 84000000 00000000  ................
 200e78 0b000000 00000000 18000000 00000000  ................
 200e88 15000000 00000000 00000000 00000000  ................
 200e98 03000000 00000000 b80f2000 00000000  .......... .....
 200ea8 02000000 00000000 18000000 00000000  ................
 200eb8 14000000 00000000 07000000 00000000  ................
 200ec8 17000000 00000000 d8040000 00000000  ................
 200ed8 07000000 00000000 18040000 00000000  ................
 200ee8 08000000 00000000 c0000000 00000000  ................
 200ef8 09000000 00000000 18000000 00000000  ................
 200f08 1e000000 00000000 08000000 00000000  ................
 200f18 fbffff6f 00000000 01000008 00000000  ...o............
 200f28 feffff6f 00000000 f8030000 00000000  ...o............
 200f38 ffffff6f 00000000 01000000 00000000  ...o............
 200f48 f0ffff6f 00000000 e4030000 00000000  ...o............
 200f58 f9ffff6f 00000000 03000000 00000000  ...o............
 200f68 00000000 00000000 00000000 00000000  ................
 200f78 00000000 00000000 00000000 00000000  ................
 200f88 00000000 00000000 00000000 00000000  ................
 200f98 00000000 00000000 00000000 00000000  ................
 200fa8 00000000 00000000 00000000 00000000  ................
Contenido de la sección .got:
 200fb8 c80d2000 00000000 00000000 00000000  .. .............
 200fc8 00000000 00000000 26050000 00000000  ........&.......
 200fd8 00000000 00000000 00000000 00000000  ................
 200fe8 00000000 00000000 00000000 00000000  ................
 200ff8 00000000 00000000                    ........        
Contenido de la sección .data:
 201000 00000000 00000000 08102000 00000000  .......... .....
Contenido de la sección .comment:
 0000 4743433a 20285562 756e7475 20372e34  GCC: (Ubuntu 7.4
 0010 2e302d31 7562756e 7475317e 31382e30  .0-1ubuntu1~18.0
 0020 342e3129 20372e34 2e3000             4.1) 7.4.0.     

Desensamblado de la sección .init:

00000000000004f0 <_init>:
 4f0:	48 83 ec 08          	sub    $0x8,%rsp
 4f4:	48 8b 05 ed 0a 20 00 	mov    0x200aed(%rip),%rax        # 200fe8 <__gmon_start__>
 4fb:	48 85 c0             	test   %rax,%rax
 4fe:	74 02                	je     502 <_init+0x12>
 500:	ff d0                	callq  *%rax
 502:	48 83 c4 08          	add    $0x8,%rsp
 506:	c3                   	retq   

Desensamblado de la sección .plt:

0000000000000510 <.plt>:
 510:	ff 35 aa 0a 20 00    	pushq  0x200aaa(%rip)        # 200fc0 <_GLOBAL_OFFSET_TABLE_+0x8>
 516:	ff 25 ac 0a 20 00    	jmpq   *0x200aac(%rip)        # 200fc8 <_GLOBAL_OFFSET_TABLE_+0x10>
 51c:	0f 1f 40 00          	nopl   0x0(%rax)

0000000000000520 <printf@plt>:
 520:	ff 25 aa 0a 20 00    	jmpq   *0x200aaa(%rip)        # 200fd0 <printf@GLIBC_2.2.5>
 526:	68 00 00 00 00       	pushq  $0x0
 52b:	e9 e0 ff ff ff       	jmpq   510 <.plt>

Desensamblado de la sección .plt.got:

0000000000000530 <__cxa_finalize@plt>:
 530:	ff 25 c2 0a 20 00    	jmpq   *0x200ac2(%rip)        # 200ff8 <__cxa_finalize@GLIBC_2.2.5>
 536:	66 90                	xchg   %ax,%ax

Desensamblado de la sección .text:

0000000000000540 <_start>:
 540:	31 ed                	xor    %ebp,%ebp
 542:	49 89 d1             	mov    %rdx,%r9
 545:	5e                   	pop    %rsi
 546:	48 89 e2             	mov    %rsp,%rdx
 549:	48 83 e4 f0          	and    $0xfffffffffffffff0,%rsp
 54d:	50                   	push   %rax
 54e:	54                   	push   %rsp
 54f:	4c 8d 05 da 01 00 00 	lea    0x1da(%rip),%r8        # 730 <__libc_csu_fini>
 556:	48 8d 0d 63 01 00 00 	lea    0x163(%rip),%rcx        # 6c0 <__libc_csu_init>
 55d:	48 8d 3d e6 00 00 00 	lea    0xe6(%rip),%rdi        # 64a <main>
 564:	ff 15 76 0a 20 00    	callq  *0x200a76(%rip)        # 200fe0 <__libc_start_main@GLIBC_2.2.5>
 56a:	f4                   	hlt    
 56b:	0f 1f 44 00 00       	nopl   0x0(%rax,%rax,1)

0000000000000570 <deregister_tm_clones>:
 570:	48 8d 3d 99 0a 20 00 	lea    0x200a99(%rip),%rdi        # 201010 <__TMC_END__>
 577:	55                   	push   %rbp
 578:	48 8d 05 91 0a 20 00 	lea    0x200a91(%rip),%rax        # 201010 <__TMC_END__>
 57f:	48 39 f8             	cmp    %rdi,%rax
 582:	48 89 e5             	mov    %rsp,%rbp
 585:	74 19                	je     5a0 <deregister_tm_clones+0x30>
 587:	48 8b 05 4a 0a 20 00 	mov    0x200a4a(%rip),%rax        # 200fd8 <_ITM_deregisterTMCloneTable>
 58e:	48 85 c0             	test   %rax,%rax
 591:	74 0d                	je     5a0 <deregister_tm_clones+0x30>
 593:	5d                   	pop    %rbp
 594:	ff e0                	jmpq   *%rax
 596:	66 2e 0f 1f 84 00 00 	nopw   %cs:0x0(%rax,%rax,1)
 59d:	00 00 00 
 5a0:	5d                   	pop    %rbp
 5a1:	c3                   	retq   
 5a2:	0f 1f 40 00          	nopl   0x0(%rax)
 5a6:	66 2e 0f 1f 84 00 00 	nopw   %cs:0x0(%rax,%rax,1)
 5ad:	00 00 00 

00000000000005b0 <register_tm_clones>:
 5b0:	48 8d 3d 59 0a 20 00 	lea    0x200a59(%rip),%rdi        # 201010 <__TMC_END__>
 5b7:	48 8d 35 52 0a 20 00 	lea    0x200a52(%rip),%rsi        # 201010 <__TMC_END__>
 5be:	55                   	push   %rbp
 5bf:	48 29 fe             	sub    %rdi,%rsi
 5c2:	48 89 e5             	mov    %rsp,%rbp
 5c5:	48 c1 fe 03          	sar    $0x3,%rsi
 5c9:	48 89 f0             	mov    %rsi,%rax
 5cc:	48 c1 e8 3f          	shr    $0x3f,%rax
 5d0:	48 01 c6             	add    %rax,%rsi
 5d3:	48 d1 fe             	sar    %rsi
 5d6:	74 18                	je     5f0 <register_tm_clones+0x40>
 5d8:	48 8b 05 11 0a 20 00 	mov    0x200a11(%rip),%rax        # 200ff0 <_ITM_registerTMCloneTable>
 5df:	48 85 c0             	test   %rax,%rax
 5e2:	74 0c                	je     5f0 <register_tm_clones+0x40>
 5e4:	5d                   	pop    %rbp
 5e5:	ff e0                	jmpq   *%rax
 5e7:	66 0f 1f 84 00 00 00 	nopw   0x0(%rax,%rax,1)
 5ee:	00 00 
 5f0:	5d                   	pop    %rbp
 5f1:	c3                   	retq   
 5f2:	0f 1f 40 00          	nopl   0x0(%rax)
 5f6:	66 2e 0f 1f 84 00 00 	nopw   %cs:0x0(%rax,%rax,1)
 5fd:	00 00 00 

0000000000000600 <__do_global_dtors_aux>:
 600:	80 3d 09 0a 20 00 00 	cmpb   $0x0,0x200a09(%rip)        # 201010 <__TMC_END__>
 607:	75 2f                	jne    638 <__do_global_dtors_aux+0x38>
 609:	48 83 3d e7 09 20 00 	cmpq   $0x0,0x2009e7(%rip)        # 200ff8 <__cxa_finalize@GLIBC_2.2.5>
 610:	00 
 611:	55                   	push   %rbp
 612:	48 89 e5             	mov    %rsp,%rbp
 615:	74 0c                	je     623 <__do_global_dtors_aux+0x23>
 617:	48 8b 3d ea 09 20 00 	mov    0x2009ea(%rip),%rdi        # 201008 <__dso_handle>
 61e:	e8 0d ff ff ff       	callq  530 <__cxa_finalize@plt>
 623:	e8 48 ff ff ff       	callq  570 <deregister_tm_clones>
 628:	c6 05 e1 09 20 00 01 	movb   $0x1,0x2009e1(%rip)        # 201010 <__TMC_END__>
 62f:	5d                   	pop    %rbp
 630:	c3                   	retq   
 631:	0f 1f 80 00 00 00 00 	nopl   0x0(%rax)
 638:	f3 c3                	repz retq 
 63a:	66 0f 1f 44 00 00    	nopw   0x0(%rax,%rax,1)

0000000000000640 <frame_dummy>:
 640:	55                   	push   %rbp
 641:	48 89 e5             	mov    %rsp,%rbp
 644:	5d                   	pop    %rbp
 645:	e9 66 ff ff ff       	jmpq   5b0 <register_tm_clones>

000000000000064a <main>:
 64a:	55                   	push   %rbp
 64b:	48 89 e5             	mov    %rsp,%rbp
 64e:	48 83 ec 10          	sub    $0x10,%rsp
 652:	c7 45 fc 00 00 00 00 	movl   $0x0,-0x4(%rbp)
 659:	c6 45 fb 20          	movb   $0x20,-0x5(%rbp)
 65d:	0f b6 45 fb          	movzbl -0x5(%rbp),%eax
 661:	84 c0                	test   %al,%al
 663:	78 45                	js     6aa <main+0x60>
 665:	83 45 fc 01          	addl   $0x1,-0x4(%rbp)
 669:	0f b6 45 fb          	movzbl -0x5(%rbp),%eax
 66d:	89 c6                	mov    %eax,%esi
 66f:	48 8d 3d ce 00 00 00 	lea    0xce(%rip),%rdi        # 744 <_IO_stdin_used+0x4>
 676:	b8 00 00 00 00       	mov    $0x0,%eax
 67b:	e8 a0 fe ff ff       	callq  520 <printf@plt>
 680:	83 7d fc 10          	cmpl   $0x10,-0x4(%rbp)
 684:	75 18                	jne    69e <main+0x54>
 686:	48 8d 3d bb 00 00 00 	lea    0xbb(%rip),%rdi        # 748 <_IO_stdin_used+0x8>
 68d:	b8 00 00 00 00       	mov    $0x0,%eax
 692:	e8 89 fe ff ff       	callq  520 <printf@plt>
 697:	c7 45 fc 00 00 00 00 	movl   $0x0,-0x4(%rbp)
 69e:	0f b6 45 fb          	movzbl -0x5(%rbp),%eax
 6a2:	83 c0 01             	add    $0x1,%eax
 6a5:	88 45 fb             	mov    %al,-0x5(%rbp)
 6a8:	eb b3                	jmp    65d <main+0x13>
 6aa:	b8 00 00 00 00       	mov    $0x0,%eax
 6af:	c9                   	leaveq 
 6b0:	c3                   	retq   
 6b1:	66 2e 0f 1f 84 00 00 	nopw   %cs:0x0(%rax,%rax,1)
 6b8:	00 00 00 
 6bb:	0f 1f 44 00 00       	nopl   0x0(%rax,%rax,1)

00000000000006c0 <__libc_csu_init>:
 6c0:	41 57                	push   %r15
 6c2:	41 56                	push   %r14
 6c4:	49 89 d7             	mov    %rdx,%r15
 6c7:	41 55                	push   %r13
 6c9:	41 54                	push   %r12
 6cb:	4c 8d 25 e6 06 20 00 	lea    0x2006e6(%rip),%r12        # 200db8 <__frame_dummy_init_array_entry>
 6d2:	55                   	push   %rbp
 6d3:	48 8d 2d e6 06 20 00 	lea    0x2006e6(%rip),%rbp        # 200dc0 <__init_array_end>
 6da:	53                   	push   %rbx
 6db:	41 89 fd             	mov    %edi,%r13d
 6de:	49 89 f6             	mov    %rsi,%r14
 6e1:	4c 29 e5             	sub    %r12,%rbp
 6e4:	48 83 ec 08          	sub    $0x8,%rsp
 6e8:	48 c1 fd 03          	sar    $0x3,%rbp
 6ec:	e8 ff fd ff ff       	callq  4f0 <_init>
 6f1:	48 85 ed             	test   %rbp,%rbp
 6f4:	74 20                	je     716 <__libc_csu_init+0x56>
 6f6:	31 db                	xor    %ebx,%ebx
 6f8:	0f 1f 84 00 00 00 00 	nopl   0x0(%rax,%rax,1)
 6ff:	00 
 700:	4c 89 fa             	mov    %r15,%rdx
 703:	4c 89 f6             	mov    %r14,%rsi
 706:	44 89 ef             	mov    %r13d,%edi
 709:	41 ff 14 dc          	callq  *(%r12,%rbx,8)
 70d:	48 83 c3 01          	add    $0x1,%rbx
 711:	48 39 dd             	cmp    %rbx,%rbp
 714:	75 ea                	jne    700 <__libc_csu_init+0x40>
 716:	48 83 c4 08          	add    $0x8,%rsp
 71a:	5b                   	pop    %rbx
 71b:	5d                   	pop    %rbp
 71c:	41 5c                	pop    %r12
 71e:	41 5d                	pop    %r13
 720:	41 5e                	pop    %r14
 722:	41 5f                	pop    %r15
 724:	c3                   	retq   
 725:	90                   	nop
 726:	66 2e 0f 1f 84 00 00 	nopw   %cs:0x0(%rax,%rax,1)
 72d:	00 00 00 

0000000000000730 <__libc_csu_fini>:
 730:	f3 c3                	repz retq 

Desensamblado de la sección .fini:

0000000000000734 <_fini>:
 734:	48 83 ec 08          	sub    $0x8,%rsp
 738:	48 83 c4 08          	add    $0x8,%rsp
 73c:	c3                   	retq   
